module todo_services

go 1.22.0

require (
	github.com/golang-migrate/migrate/v4 v4.17.0
	github.com/google/uuid v1.6.0
	github.com/jackc/pgx/v5 v5.5.3
	github.com/joho/godotenv v1.5.1
	github.com/lib/pq v1.10.9
	github.com/spf13/cast v1.6.0
	google.golang.org/grpc v1.62.0
	google.golang.org/protobuf v1.32.0
)

require (
	github.com/golang/protobuf v1.5.3 // indirect
	github.com/hashicorp/errwrap v1.1.0 // indirect
	github.com/hashicorp/go-multierror v1.1.1 // indirect
	github.com/jackc/pgpassfile v1.0.0 // indirect
	github.com/jackc/pgservicefile v0.0.0-20221227161230-091c0ba34f0a // indirect
	github.com/jackc/puddle/v2 v2.2.1 // indirect
	go.uber.org/atomic v1.7.0 // indirect
	golang.org/x/crypto v0.18.0 // indirect
	golang.org/x/net v0.20.0 // indirect
	golang.org/x/sync v0.6.0 // indirect
	golang.org/x/sys v0.16.0 // indirect
	golang.org/x/text v0.14.0 // indirect
	google.golang.org/genproto/googleapis/rpc v0.0.0-20240123012728-ef4313101c80 // indirect
)
